Government of Canada Vehicle Recalls Database API Wrapper • caRecall
…
# install.packages("devtools")
devtools::install_github("WraySmith/caRecall")

Usage

More documentation on caRecall can found at: https://wraysmith.github.io/caRecall/

Note that an API key is required to run the functions in caRecall and query the Vehicle Recalls Database. The key can be acquired at https://tc.api.canada.ca/en/detail?api=VRDB.

A simple example of using the recall_by_years() function in the package to return all recalls manufactured in 2000 could be done as follows:

recall_summary_2000 <- recall_by_years(start_year = 2000, end_year = 2000, limit = 3000)
recall_summary_2000
#> # A tibble: 2,422 x 6
#>    `Recall number` `Manufacturer N~ `Model name` `Make name`  Year `Recall date`
#>    <chr>           <chr>            <chr>        <chr>       <int> <date>       
#>  1 1993076         MERCEDES-BENZ    300          MERCEDES-B~  2000 1993-05-31   
#>  2 1999056         FIAT CHRYSLER A~ NEON         CHRYSLER     2000 1999-04-14   
#>  3 1999108         FIAT CHRYSLER A~ NEON         CHRYSLER     2000 1999-06-07   
#>  4 1999111         FLEETWOOD        TIOGA        FLEETWOOD    2000 1999-06-08   
#>  5 1999137         POLARIS          SNOWMOBILE   POLARIS      2000 1999-07-26   
#>  6 1999138         MAZDA            MPV          MAZDA        2000 1999-07-27   
#>  7 1999147         MAZDA            MPV          MAZDA        2000 1999-07-30   
#>  8 1999151         GENERAL MOTORS   S10          CHEVROLET    2000 1999-08-16   
#>  9 1999151         GENERAL MOTORS   SONOMA       GMC          2000 1999-08-16   
#> 10 1999155         GENERAL MOTORS   SUNFIRE      PONTIAC      2000 1999-08-19   
#> # ... with 2,412 more rows
…
